lab5
…
Hcount = count(acc, acc$HOUR) %>% arrange(desc(n))
Hcount

## # A tibble: 25 x 2
##    `acc$HOUR`     n
##         <int> <int>
##  1         18  1984
##  2         20  1919
##  3         17  1913
##  4         19  1902
##  5         16  1808
##  6         21  1801
##  7         15  1731
##  8         22  1650
##  9         14  1567
## 10         13  1514
## # ... with 15 more rows
…
## # A tibble: 7 x 2
##   DAY_WEEK     n
##      <int> <int>
## 1        1  7475
## 2        2  6919
## 3        3  6304
## 4        4  6814
## 5        5  7244
## 6        6  8240
## 7        7  8918

accidentjoin2 %>% count(HOUR.x)

## # A tibble: 25 x 2
##    HOUR.x     n
##     <int> <int>
##  1      0  1726
##  2      1  1634
##  3      2  1745
##  4      3  1334
##  5      4  1110
##  6      5  1644
##  7      6  1901
##  8      7  1816
##  9      8  1561
## 10      9  1669
## # ... with 15 more rows
…
